Fit intravenous pharmacokinetic data to a one-compartment linear elimination model — Fit_1cmpt_iv • nlmixr2autoinit
…
#> 
#> ── (value$parFixed or value$parFixedDf): ──
#> 
#>          Est.        SE     %RSE Back-transformed(95%CI) BSV(SD) Shrink(SD)%
#> tcl      1.34 4.631e-05 0.003457    3.818 (3.817, 3.818)                    
#> tv       4.15 5.055e-05 0.001218    63.45 (63.45, 63.46)                    
#> add.err 273.2                                      273.2                    
#>  
#>   Covariance Type (value$covMethod): r (LM)
#>   Censoring (value$censInformation): No censoring
#>   Minimization message (value$message):  
#>     Relative error in the sum of squares is at most `ftol'. 
#> 
#> ── Fit Data (object value is a modified tibble): ──
#> # A tibble: 6,960 × 14
#>   ID     EVID  TIME    DV IPRED  IRES   IWRES    cp centre    cl     v      k
#>   <fct> <int> <dbl> <dbl> <dbl> <dbl>   <dbl> <dbl>  <dbl> <dbl> <dbl>  <dbl>
#> 1 1         0  0.25 1126.  931. 195.   0.712   931. 59104.  3.82  63.5 0.0602
#> 2 1         0  0.5   870.  918. -47.7 -0.174   918. 58222.  3.82  63.5 0.0602
#> 3 1         0  0.75  884.  904. -20.3 -0.0741  904. 57353.  3.82  63.5 0.0602
#> # ℹ 6,957 more rows
#> # ℹ 2 more variables: tad <dbl>, dosenum <dbl>
…
