Fit oral pharmacokinetic data to a two-compartment model — Fit_2cmpt_oral • nlmixr2autoinit
…
#>            Est.        SE     %RSE Back-transformed(95%CI) BSV(SD) Shrink(SD)%
#> tka     0.05491  0.000376   0.6848    1.056 (1.056, 1.057)                    
#> tcl       1.355 5.931e-05 0.004379    3.875 (3.875, 3.875)                    
#> tv1       4.277 0.0001988 0.004647    72.02 (71.99, 72.05)                    
#> tv2       3.931 0.0006644   0.0169    50.96 (50.89, 51.02)                    
#> tq        1.191  0.001148  0.09643     3.29 (3.283, 3.298)                    
#> add.err   231.1                                      231.1                    
#>  
#>   Covariance Type (value$covMethod): r (LM)
#>   Censoring (value$censInformation): No censoring
#>   Minimization message (value$message):  
#>     Relative error in the sum of squares is at most `ftol'. 
#> 
#> ── Fit Data (object value is a modified tibble): ──
#> # A tibble: 6,960 × 20
#>   ID     TIME    DV IPRED   IRES   IWRES    cp  depot     A1    A2    ka    cl
#>   <fct> <dbl> <dbl> <dbl>  <dbl>   <dbl> <dbl>  <dbl>  <dbl> <dbl> <dbl> <dbl>
#> 1 1      0.25  196.  191.   5.21  0.0225  191. 46073. 13748.  81.9  1.06  3.88
#> 2 1      0.5   310.  333. -22.7  -0.0983  333. 35379. 23970. 297.   1.06  3.88
#> 3 1      0.75  640.  437. 202.    0.876   437. 27167. 31494. 609.   1.06  3.88
#> # ℹ 6,957 more rows
#> # ℹ 8 more variables: v1 <dbl>, v2 <dbl>, q <dbl>, k <dbl>, k12 <dbl>,
#> #   k21 <dbl>, tad <dbl>, dosenum <dbl>
…
