Fit oral pharmacokinetic data to a one-compartment linear elimination model — Fit_1cmpt_oral • nlmixr2autoinit
…
#> ── (value$parFixed or value$parFixedDf): ──
#> 
#>            Est.        SE     %RSE Back-transformed(95%CI) BSV(SD) Shrink(SD)%
#> tka     0.01948 0.0002116    1.087      1.02 (1.019, 1.02)                    
#> tcl       1.358   4.8e-05 0.003533       3.89 (3.89, 3.89)                    
#> tv        4.266 9.224e-05 0.002162    71.24 (71.23, 71.25)                    
#> add.err   230.1                                      230.1                    
#>  
#>   Covariance Type (value$covMethod): r (LM)
#>   Censoring (value$censInformation): No censoring
#>   Minimization message (value$message):  
#>     Relative error in the sum of squares is at most `ftol'. 
#> 
#> ── Fit Data (object value is a modified tibble): ──
#> # A tibble: 6,960 × 16
#>   ID     EVID  TIME    DV IPRED  IRES   IWRES    cp  depot centre    ka    cl
#>   <fct> <int> <dbl> <dbl> <dbl> <dbl>   <dbl> <dbl>  <dbl>  <dbl> <dbl> <dbl>
#> 1 1         0  0.25  205.  188.  16.6  0.0723  188. 46499. 13406.  1.02  3.89
#> 2 1         0  0.5   311.  331. -20.9 -0.0906  331. 36036. 23613.  1.02  3.89
#> 3 1         0  0.75  389.  440. -50.8 -0.221   440. 27927. 31344.  1.02  3.89
#> # ℹ 6,957 more rows
#> # ℹ 4 more variables: v <dbl>, k <dbl>, tad <dbl>, dosenum <dbl>
…
