Fit intravenous pharmacokinetic data to a two-compartment linear elimination model — Fit_2cmpt_iv • nlmixr2autoinit
…
#> 
#>          Est.        SE     %RSE Back-transformed(95%CI) BSV(SD) Shrink(SD)%
#> tcl     1.345 5.454e-05 0.004056    3.837 (3.836, 3.837)                    
#> tv1     4.151 6.161e-05 0.001484    63.52 (63.52, 63.53)                    
#> tv2     4.262 0.0004842  0.01136    70.99 (70.92, 71.05)                    
#> tq      1.492 0.0004336  0.02906     4.446 (4.442, 4.45)                    
#> add.err 271.8                                      271.8                    
#>  
#>   Covariance Type (value$covMethod): r (LM)
#>   Censoring (value$censInformation): No censoring
#>   Minimization message (value$message):  
#>     Relative error in the sum of squares is at most `ftol'. 
#> 
#> ── Fit Data (object value is a modified tibble): ──
#> # A tibble: 6,960 × 18
#>   ID     TIME    DV IPRED  IRES  IWRES    cp  centre    A2    cl    v1    v2
#>   <fct> <dbl> <dbl> <dbl> <dbl>  <dbl> <dbl>   <dbl> <dbl> <dbl> <dbl> <dbl>
#> 1 1      0.25 1041. 1829. -788. -2.90  1829. 116167. 2050.  3.84  63.5  71.0
#> 2 1      0.5  1629  1771. -142. -0.522 1771. 112489. 4003.  3.84  63.5  71.0
#> 3 1      0.75  878. 1715. -837. -3.08  1715. 108957. 5862.  3.84  63.5  71.0
#> # ℹ 6,957 more rows
#> # ℹ 6 more variables: q <dbl>, k <dbl>, k12 <dbl>, k21 <dbl>, tad <dbl>,
#> #   dosenum <dbl>
…
