Fit intravenous pharmacokinetic data to a one-compartment model with Michaelis-Menten elimination — Fit_1cmpt_mm_iv • nlmixr2autoinit
…
#> ── (value$parFixed or value$parFixedDf): ──
#> 
#>          Est.        SE      %RSE Back-transformed(95%CI) BSV(SD) Shrink(SD)%
#> lvmax   6.917 8.768e-05  0.001268       1009 (1009, 1009)                    
#> lkm     5.378 0.0003263  0.006067    216.6 (216.4, 216.7)                    
#> tv      4.074 3.048e-05 0.0007481    58.78 (58.78, 58.78)                    
#> add.err  1198                                        1198                    
#>  
#>   Covariance Type (value$covMethod): r (LM)
#>   Censoring (value$censInformation): No censoring
#>   Minimization message (value$message):  
#>     Relative error in the sum of squares is at most `ftol'. 
#> 
#> ── Fit Data (object value is a modified tibble): ──
#> # A tibble: 6,960 × 14
#>   ID     EVID  TIME    DV IPRED   IRES   IWRES    cp centre  vmax    km     v
#>   <fct> <int> <dbl> <dbl> <dbl>  <dbl>   <dbl> <dbl>  <dbl> <dbl> <dbl> <dbl>
#> 1 1         0  0.25  868.  677.  190.   0.159   677. 39809. 1009.  217.  58.8
#> 2 1         0  0.5   750.  674.   76.1  0.0635  674. 39618. 1009.  217.  58.8
#> 3 1         0  0.75  553   671. -118.  -0.0983  671. 39427. 1009.  217.  58.8
#> # ℹ 6,957 more rows
#> # ℹ 2 more variables: tad <dbl>, dosenum <dbl>
…
