Fit intravenous pharmacokinetic data to a three-compartment linear elimination model — Fit_3cmpt_iv • nlmixr2autoinit
…
#> tcl      1.333 6.246e-05 0.004687    3.791 (3.791, 3.792)                    
#> tv1      4.136 8.781e-05 0.002123    62.55 (62.54, 62.56)                    
#> tv2      4.099  0.001428  0.03483    60.29 (60.13, 60.46)                    
#> tv3      2.947  0.005467   0.1855    19.05 (18.84, 19.25)                    
#> tq      0.6376   0.00451   0.7074    1.892 (1.875, 1.909)                    
#> tq2      1.253  0.002118    0.169    3.501 (3.486, 3.515)                    
#> add.err  271.6                                      271.6                    
#>  
#>   Covariance Type (value$covMethod): r (LM)
#>   Censoring (value$censInformation): No censoring
#>   Minimization message (value$message):  
#>     Relative error in the sum of squares is at most `ftol'. 
#> 
#> ── Fit Data (object value is a modified tibble): ──
#> # A tibble: 6,960 × 23
#>   ID     TIME    DV IPRED  IRES  IWRES    cp  centre    A2    A3    cl    v1
#>   <fct> <dbl> <dbl> <dbl> <dbl>  <dbl> <dbl>   <dbl> <dbl> <dbl> <dbl> <dbl>
#> 1 1      0.25 1041. 1850. -809. -2.98  1850. 115716.  888. 1611.  3.79  62.5
#> 2 1      0.5  1629  1785. -156. -0.575 1785. 111662. 1737. 3093.  3.79  62.5
#> 3 1      0.75  878. 1724. -846. -3.12  1724. 107825. 2550. 4455.  3.79  62.5
#> # ℹ 6,957 more rows
#> # ℹ 11 more variables: v2 <dbl>, v3 <dbl>, q <dbl>, q2 <dbl>, k <dbl>,
#> #   k12 <dbl>, k21 <dbl>, k13 <dbl>, k31 <dbl>, tad <dbl>, dosenum <dbl>
…
