…
#> 
#>          Est.        SE     %RSE Back-transformed(95%CI) BSV(SD) Shrink(SD)%
#> tcl     1.345 5.452e-05 0.004055    3.837 (3.836, 3.837)                    
#> tv1     4.151 6.162e-05 0.001484    63.52 (63.52, 63.53)                    
#> tv2     4.262 0.0004843  0.01136    70.97 (70.91, 71.04)                    
#> tq      1.492 0.0004336  0.02906    4.447 (4.443, 4.451)                    
#> add.err 271.8                                      271.8                    
#>  
#>   Covariance Type ($covMethod): r (LM)
#>   Censoring ($censInformation): No censoring
#>   Minimization message ($message):  
#>     Relative error in the sum of squares is at most `ftol'. 
#> 
#> ── Fit Data (object is a modified tibble): ──
#> # A tibble: 6,960 × 18
#>   ID     TIME    DV IPRED  IRES  IWRES    cp  centre    A2    cl    v1    v2
#>   <fct> <dbl> <dbl> <dbl> <dbl>  <dbl> <dbl>   <dbl> <dbl> <dbl> <dbl> <dbl>
#> 1 1      0.25 1041. 1829. -788. -2.90  1829. 116167. 2050.  3.84  63.5  71.0
#> 2 1      0.5  1629  1771. -142. -0.522 1771. 112488. 4003.  3.84  63.5  71.0
#> 3 1      0.75  878. 1715. -837. -3.08  1715. 108956. 5863.  3.84  63.5  71.0
#> # ℹ 6,957 more rows
#> # ℹ 6 more variables: q <dbl>, k <dbl>, k12 <dbl>, k21 <dbl>, tad <dbl>,
#> #   dosenum <dbl>
…
