…
#> tcl      1.333  6.25e-05 0.004689    3.791 (3.791, 3.792)                    
#> tv1      4.136 8.753e-05 0.002116    62.55 (62.54, 62.56)                    
#> tv2      4.097  0.001449  0.03536    60.16 (59.99, 60.33)                    
#> tv3      2.958  0.005456   0.1845    19.25 (19.05, 19.46)                    
#> tq      0.6289  0.004597   0.7309    1.876 (1.859, 1.893)                    
#> tq2      1.256  0.002116   0.1685    3.511 (3.496, 3.526)                    
#> add.err  271.6                                      271.6                    
#>  
#>   Covariance Type ($covMethod): r (LM)
#>   Censoring ($censInformation): No censoring
#>   Minimization message ($message):  
#>     Relative error in the sum of squares is at most `ftol'. 
#> 
#> ── Fit Data (object is a modified tibble): ──
#> # A tibble: 6,960 × 23
#>   ID     TIME    DV IPRED  IRES  IWRES    cp  centre    A2    A3    cl    v1
#>   <fct> <dbl> <dbl> <dbl> <dbl>  <dbl> <dbl>   <dbl> <dbl> <dbl> <dbl> <dbl>
#> 1 1      0.25 1041. 1850. -809. -2.98  1850. 115718.  880. 1616.  3.79  62.6
#> 2 1      0.5  1629  1785. -156. -0.575 1785. 111667. 1722. 3103.  3.79  62.6
#> 3 1      0.75  878. 1724. -846. -3.11  1724. 107832. 2528. 4470.  3.79  62.6
#> # ℹ 6,957 more rows
#> # ℹ 11 more variables: v2 <dbl>, v3 <dbl>, q <dbl>, q2 <dbl>, k <dbl>,
#> #   k12 <dbl>, k21 <dbl>, k13 <dbl>, k31 <dbl>, tad <dbl>, dosenum <dbl>
…
