…
#>    • non-positive definite individual Hessian at solution(ID=8); FOCEi objective functions may not be comparable 
#>    • non-positive definite individual Hessian at solution(ID=7); FOCEi objective functions may not be comparable 
#>    • non-positive definite individual Hessian at solution(ID=6); FOCEi objective functions may not be comparable 
#>    • non-positive definite individual Hessian at solution(ID=5); FOCEi objective functions may not be comparable 
#>    • non-positive definite individual Hessian at solution(ID=4); FOCEi objective functions may not be comparable 
#>    • non-positive definite individual Hessian at solution(ID=3); FOCEi objective functions may not be comparable 
#>    • non-positive definite individual Hessian at solution(ID=2); FOCEi objective functions may not be comparable 
#>    • non-positive definite individual Hessian at solution(ID=1); FOCEi objective functions may not be comparable 
#>    • non-positive definite individual Hessian at solution(ID=0); FOCEi objective functions may not be comparable 
#>   Censoring ($censInformation): No censoring
#>   Minimization message ($message):  
#>     The cosine of the angle between `fvec' and any column of the Jacobian is at most `gtol' in absolute value. 
#> 
#> ── Fit Data (object is a modified tibble): ──
#> # A tibble: 6,960 × 25
#>   ID     TIME    DV IPRED  IRES IWRES    cp  depot    A1    A2    A3    ka    cl
#>   <fct> <dbl> <dbl> <dbl> <dbl> <dbl> <dbl>  <dbl> <dbl> <dbl> <dbl> <dbl> <dbl>
#> 1 1      0.25  196.    NA    NA   NaN   NaN 38354.   NaN   NaN   NaN  1.79  3.87
#> 2 1      0.5   310.    NA    NA   NaN   NaN 24516.   NaN   NaN   NaN  1.79  3.87
#> 3 1      0.75  640.    NA    NA   NaN   NaN 15671.   NaN   NaN   NaN  1.79  3.87
#> # ℹ 6,957 more rows
#> # ℹ 12 more variables: v1 <dbl>, v2 <dbl>, v3 <dbl>, q1 <dbl>, q2 <dbl>,
#> #   k <dbl>, k12 <dbl>, k21 <dbl>, k13 <dbl>, k31 <dbl>, tad <dbl>,
#> #   dosenum <dbl>
…
