…
#> 
#>            Est.        SE     %RSE Back-transformed(95%CI) BSV(SD) Shrink(SD)%
#> tka     -0.1394  0.000243   0.1743 0.8699 (0.8695, 0.8703)                    
#> lvmax     6.956 0.0001296 0.001863       1050 (1050, 1050)                    
#> lkm       5.864 0.0003416 0.005825      352 (351.8, 352.2)                    
#> tv        4.192 4.439e-05 0.001059    66.15 (66.14, 66.15)                    
#> add.err   889.4                                      889.4                    
#>  
#>   Covariance Type ($covMethod): r (LM)
#>   Censoring ($censInformation): No censoring
#>   Minimization message ($message):  
#>     Relative error in the sum of squares is at most `ftol'. 
#> 
#> ── Fit Data (object is a modified tibble): ──
#> # A tibble: 6,959 × 15
#>   ID     TIME    DV IPRED   IRES    IWRES    cp depot centre    ka  vmax    km
#>   <fct> <dbl> <dbl> <dbl>  <dbl>    <dbl> <dbl> <dbl>  <dbl> <dbl> <dbl> <dbl>
#> 1 1      0.25  27.4  29.4  -1.99 -0.00223  29.4 8045.  1944. 0.870 1050.  352.
#> 2 1      0.5   32.1  52.7 -20.6  -0.0232   52.7 6473.  3489. 0.870 1050.  352.
#> 3 1      0.75  93.5  71.3  22.2   0.0250   71.3 5208.  4714. 0.870 1050.  352.
#> # ℹ 6,956 more rows
#> # ℹ 3 more variables: v <dbl>, tad <dbl>, dosenum <dbl>
…
