…
  single_point_base.lst = run_single_point_base(
    dat = fdat,
    half_life = half_life,
    route = froute
  ),
  route = froute
)
#> $singlepoint.results
#>   ka   cl   vd           starttime time.spent
#> 1 NA 3.04 67.6 2026-05-09 22:07:59      1.557
#>                                                         single_point.message
#> 1 CL and Vd were calculated directly from steady-state and single-dose data.
#> 
#> $dat
#> # A tibble: 7,911 × 43
#>       ID  TIME    DV  LNDV   MDV   AMT  EVID raw_dose     V    CL    SS    II
#>    <int> <dbl> <dbl> <dbl> <dbl> <dbl> <dbl>    <int> <dbl> <dbl> <dbl> <dbl>
#>  1     1  0       0   0        1 60000     1    60000  65.1  4.07    99     0
#>  2     1  0.25 1126.  7.03     0     0     0    60000  65.1  4.07    99     0
#>  3     1  0.5   870.  6.77     0     0     0    60000  65.1  4.07    99     0
#>  4     1  0.75  884.  6.78     0     0     0    60000  65.1  4.07    99     0
#>  5     1  1    1244   7.13     0     0     0    60000  65.1  4.07    99     0
#>  6     1  1.5   995.  6.90     0     0     0    60000  65.1  4.07    99     0
#>  7     1  2     946.  6.85     0     0     0    60000  65.1  4.07    99     0
#>  8     1  2.5   589.  6.38     0     0     0    60000  65.1  4.07    99     0
#>  9     1  3     754.  6.63     0     0     0    60000  65.1  4.07    99     0
#> 10     1  4    1061.  6.97     0     0     0    60000  65.1  4.07    99     0
#> # ℹ 7,901 more rows
#> # ℹ 31 more variables: SD <int>, CMT <int>, resetflag <int>, raw_EVID <dbl>,
#> #   RATE <dbl>, SSflag <int>, route <chr>, dose_number <int>, tad <dbl>,
#> #   dose <dbl>, iiobs <dbl>, rateobs <dbl>, routeobs <chr>, durationobs <dbl>,
#> #   DVstd <dbl>, indiv_lambdaz_eligible <int>, SteadyState <lgl>,
#> #   recent_ii <dbl>, doses_req_fixed <dbl>, last_two_doses_interval <dbl>,
#> #   doses_req_hl <dbl>, doses_required <dbl>, dose_count_before_obs <int>, …
#> 
#> $single_point.ka.out
#> [1] NA
#> 
#> $single_point_cl_df
#> # A tibble: 842 × 55
#>       ID  TIME     DV  LNDV   MDV   AMT  EVID raw_dose     V    CL    SS    II
#>    <int> <dbl>  <dbl> <dbl> <dbl> <dbl> <dbl>    <int> <dbl> <dbl> <dbl> <dbl>
#>  1     1  144.  287.   5.66     0     0     0    60000  65.1  4.07    99     0
#>  2     1  145  1690.   7.43     0     0     0    60000  65.1  4.07    99     0
#>  3     1  164   243.   5.49     0     0     0    60000  65.1  4.07    99     0
#>  4     1  192.  242.   5.49     0     0     0    60000  65.1  4.07    99     0
#>  5     1  216.  281.   5.64     0     0     0    60000  65.1  4.07    99     0
#>  6     1  216. 1500.   7.31     0     0     0    60000  65.1  4.07     0     0
#>  7     1  240   268.   5.59     0     0     0    60000  65.1  4.07     0     0
#>  8     2  144.   72    4.28     0     0     0    10000  58.6  2.94    99     0
#>  9     2  146.  273.   5.61     0     0     0    10000  58.6  2.94    99     0
#> 10     2  168.   72.2  4.28     0     0     0    10000  58.6  2.94    99     0
#> # ℹ 832 more rows
#> # ℹ 43 more variables: SD <int>, CMT <int>, resetflag <int>, raw_EVID <dbl>,
#> #   RATE <dbl>, SSflag <int>, route <chr>, dose_number <int>, tad <dbl>,
#> #   dose <dbl>, iiobs <dbl>, rateobs <dbl>, routeobs <chr>, durationobs <dbl>,
#> #   DVstd <dbl>, indiv_lambdaz_eligible <int>, SteadyState <lgl>,
#> #   recent_ii <dbl>, doses_req_fixed <dbl>, last_two_doses_interval <dbl>,
#> #   doses_req_hl <dbl>, doses_required <dbl>, dose_count_before_obs <int>, …
#> 
#> $single_point_vd_df
#> # A tibble: 120 × 45
#>       ID  TIME    DV  LNDV   MDV   AMT  EVID raw_dose     V    CL    SS    II
#>    <int> <dbl> <dbl> <dbl> <dbl> <dbl> <dbl>    <int> <dbl> <dbl> <dbl> <dbl>
#>  1     1  0.25 1126.  7.03     0     0     0    60000  65.1  4.07    99     0
#>  2     2  0.25  220.  5.39     0     0     0    10000  58.6  2.94    99     0
#>  3     3  0.25 1061.  6.97     0     0     0    60000  66.6  3.82    99     0
#>  4     4  0.25  609.  6.41     0     0     0    30000  85.4  3.39    99     0
#>  5     5  0.25 2251.  7.72     0     0     0   120000  55.8  3.45    99     0
#>  6     6  0.25  596.  6.39     0     0     0    30000  52.2  4.26    99     0
#>  7     7  0.25  140.  4.94     0     0     0    10000  66.5  4.16    99     0
#>  8     8  0.25 1282.  7.16     0     0     0   120000  95.1  2.93    99     0
#>  9     9  0.25 2429.  7.80     0     0     0   120000  56.0  6.21    99     0
#> 10    10  0.25  134.  4.90     0     0     0    10000  77.6  7.08    99     0
#> # ℹ 110 more rows
#> # ℹ 33 more variables: SD <int>, CMT <int>, resetflag <int>, raw_EVID <dbl>,
#> #   RATE <dbl>, SSflag <int>, route <chr>, dose_number <int>, tad <dbl>,
#> #   dose <dbl>, iiobs <dbl>, rateobs <dbl>, routeobs <chr>, durationobs <dbl>,
#> #   DVstd <dbl>, indiv_lambdaz_eligible <int>, SteadyState <lgl>,
#> #   recent_ii <dbl>, doses_req_fixed <dbl>, last_two_doses_interval <dbl>,
#> #   doses_req_hl <dbl>, doses_required <dbl>, dose_count_before_obs <int>, …
…
#> 301 115           1  64.8
#> 302 115           5  67.5
#> 303 116           1  58.4
#> 304 116           5  54.4
#> 305 117           1  46.3
#> 306 117           5  46.8
#> 307 118           1  49.1
#> 308 118           5  53.5
#> 309 119           1  50.1
#> 310 119           5  53.9
#> 311 120           1  56.5
#> 312 120           5  52.7
#> 
#> $approx.vc.out$approx.vc.dat.sd
#> # A tibble: 104 × 44
#>       ID  TIME    DV  LNDV   MDV   AMT  EVID raw_dose     V    CL    SS    II
#>    <int> <dbl> <dbl> <dbl> <dbl> <dbl> <dbl>    <int> <dbl> <dbl> <dbl> <dbl>
#>  1     1  216. 1500.  7.31     0     0     0    60000  65.1  4.07     0     0
#>  2     2  216.  309.  5.73     0     0     0    10000  58.6  2.94     0     0
#>  3     3  216. 1595.  7.37     0     0     0    60000  66.6  3.82     0     0
#>  4     4  216.  664.  6.50     0     0     0    30000  85.4  3.39     0     0
#>  5     5  218. 3369.  8.12     0     0     0   120000  55.8  3.45     0     0
#>  6     6  216.  769.  6.64     0     0     0    30000  52.2  4.26     0     0
#>  7     7  217   269.  5.59     0     0     0    10000  66.5  4.16     0     0
#>  8     8  216. 3428.  8.14     0     0     0   120000  95.1  2.93     0     0
#>  9     9  217. 2651.  7.88     0     0     0   120000  56.0  6.21     0     0
#> 10    10  217   197.  5.28     0     0     0    10000  77.6  7.08     0     0
#> # ℹ 94 more rows
#> # ℹ 32 more variables: SD <int>, CMT <int>, resetflag <int>, raw_EVID <dbl>,
#> #   RATE <dbl>, SSflag <int>, route <chr>, dose_number <int>, tad <dbl>,
#> #   dose <dbl>, iiobs <dbl>, rateobs <dbl>, routeobs <chr>, durationobs <dbl>,
#> #   DVstd <dbl>, indiv_lambdaz_eligible <int>, SteadyState <lgl>,
#> #   recent_ii <dbl>, doses_req_fixed <dbl>, last_two_doses_interval <dbl>,
#> #   doses_req_hl <dbl>, doses_required <dbl>, dose_count_before_obs <int>, …
#> 
#> $approx.vc.out$approx.vc.dat.md
#> # A tibble: 208 × 57
#>       ID  TIME    DV  LNDV   MDV   AMT  EVID raw_dose     V    CL    SS    II
#>    <int> <dbl> <dbl> <dbl> <dbl> <dbl> <dbl>    <int> <dbl> <dbl> <dbl> <dbl>
#>  1     1  216. 1500.  7.31     0     0     0    60000  65.1  4.07     0     0
#>  2     1  145  1690.  7.43     0     0     0    60000  65.1  4.07    99     0
#>  3     2  216.  309.  5.73     0     0     0    10000  58.6  2.94     0     0
#>  4     2  146.  273.  5.61     0     0     0    10000  58.6  2.94    99     0
#>  5     3  216. 1595.  7.37     0     0     0    60000  66.6  3.82     0     0
#>  6     3  145. 2586.  7.86     0     0     0    60000  66.6  3.82    99     0
#>  7     4  216.  664.  6.50     0     0     0    30000  85.4  3.39     0     0
#>  8     5  218. 3369.  8.12     0     0     0   120000  55.8  3.45     0     0
#>  9     5  144. 3187.  8.07     0     0     0   120000  55.8  3.45    99     0
#> 10     6  216.  769.  6.64     0     0     0    30000  52.2  4.26     0     0
#> # ℹ 198 more rows
#> # ℹ 45 more variables: SD <int>, CMT <int>, resetflag <int>, raw_EVID <dbl>,
#> #   RATE <dbl>, SSflag <int>, route <chr>, dose_number <int>, tad <dbl>,
#> #   dose <dbl>, iiobs <dbl>, rateobs <dbl>, routeobs <chr>, durationobs <dbl>,
#> #   DVstd <dbl>, indiv_lambdaz_eligible <int>, SteadyState <lgl>,
#> #   recent_ii <dbl>, doses_req_fixed <dbl>, last_two_doses_interval <dbl>,
#> #   doses_req_hl <dbl>, doses_required <dbl>, dose_count_before_obs <int>, …
…
