…
#> tv       4.15 4.105e-05 0.0009891             63.45 (63.45, 63.46)        
#> add.err 273.2                                                273.2        
#>         Shrink(SD)%
#> lvmax              
#> lkm                
#> tv                 
#> add.err            
#>  
#>   Covariance Type ($covMethod): r (LM)
#>   Censoring ($censInformation): No censoring
#>   Minimization message ($message):  
#>     Relative error in the sum of squares is at most `ftol'. 
#> 
#> ── Fit Data (object is a modified tibble): ──
#> # A tibble: 6,951 × 13
#>   ID     TIME    DV IPRED  IRES   IWRES    cp centre    vmax      km     v   tad
#>   <fct> <dbl> <dbl> <dbl> <dbl>   <dbl> <dbl>  <dbl>   <dbl>   <dbl> <dbl> <dbl>
#> 1 1      0.25 1126.  931. 195.   0.712   931. 59104. 8.45e10 2.21e10  63.5  0.25
#> 2 1      0.5   870.  918. -47.7 -0.174   918. 58222. 8.45e10 2.21e10  63.5  0.5 
#> 3 1      0.75  884.  904. -20.3 -0.0741  904. 57353. 8.45e10 2.21e10  63.5  0.75
#> # ℹ 6,948 more rows
#> # ℹ 1 more variable: dosenum <dbl>
…
