Compute overall residual variability from elimination phase — getsigma • nlmixr2autoinit
…
#> Observations in the First-Dose Interval   2276           
#> Subjects with Multiple-Dose Data          120            
#> Observations after Multiple Doses         4675           
#> ----------------------------------------  ------
getsigma(dat)
#> $summary
#> $summary$sigma_additive
#> [1] 11.11136
#> 
#> $summary$sigma_proportional
#> [1] 0.1138021
#> 
#> 
#> $full
#> # A tibble: 960 × 7
#>       ID resetflag dose_number intercept   slope residual_sd_additive
#>    <int>     <int>       <int>     <dbl>   <dbl>                <dbl>
#>  1     1         1           1      6.97 -0.0679                1.70 
#>  2     1         1           2     NA    NA                    NA    
#>  3     1         1           3     NA    NA                    NA    
#>  4     1         1           4     NA    NA                    NA    
#>  5     1         1           5     19.6  -0.0843               72.9  
#>  6     1         1           6     NA    NA                    NA    
#>  7     1         1           7     NA    NA                    NA    
#>  8     1         2           1     15.5  -0.0446                0.608
#>  9     2         1           1      6.53 -0.0732                0.892
#> 10     2         1           2     NA    NA                    NA    
#> # ℹ 950 more rows
#> # ℹ 1 more variable: residual_sd_proportional <dbl>
…
