Integration with nlmixr2 • nlmixr2autoinit
…
# tv      0.349 0.0548 15.7         1.42 (1.27, 1.58)     41.9      1.55% 
# add.err  2.74                                  2.74                     
#  
#   Covariance Type (fit$covMethod): linFim
#   Correlations in between subject variability (BSV) matrix:
#     cor:eta.v,eta.cl 
#           0.927  
#  
# 
#   Full BSV covariance (fit$omega) or correlation (fit$omegaR; diagonals=SDs) 
#   Distribution stats (mean/skewness/kurtosis/p-value) available in fit$shrink 
#   Censoring (fit$censInformation): No censoring
# 
# ── Fit Data (object fit is a modified tibble): ──
# # A tibble: 155 × 17
#   ID     TIME    DV  PRED    RES IPRED  IRES  IWRES  eta.cl   eta.v    cp    A1      cl     v      ke   tad dosenum
#   <fct> <dbl> <dbl> <dbl>  <dbl> <dbl> <dbl>  <dbl>   <dbl>   <dbl> <dbl> <dbl>   <dbl> <dbl>   <dbl> <dbl>   <dbl>
# 1 1        2   17.3  17.5 -0.173  18.5 -1.16 -0.421 -0.0909 -0.0544  18.5  24.8 0.00604  1.34 0.00450     2       1
# 2 1      112.  31    28.1  2.94   30.0  1.02  0.371 -0.0909 -0.0544  30.0  40.3 0.00604  1.34 0.00450     4      10
# 3 2        2    9.7  10.5 -0.784  12.4 -2.69 -0.982 -0.238  -0.167   12.4  14.9 0.00521  1.20 0.00435     2       1
# # ℹ 152 more rows
# # ℹ Use `print(n = ...)` to see more rows
…
# tq       0.103  0.633  617          1.11 (0.32, 3.83)                     
# add.err   3.03                                   3.03                     
#  
#   Covariance Type (fit_2cmt$covMethod): linFim
#   Correlations in between subject variability (BSV) matrix:
#     cor:eta.vc,eta.cl 
#            0.942  
#  
# 
#   Full BSV covariance (fit_2cmt$omega) or correlation (fit_2cmt$omegaR; diagonals=SDs) 
#   Distribution stats (mean/skewness/kurtosis/p-value) available in fit_2cmt$shrink 
#   Censoring (fit_2cmt$censInformation): No censoring
# 
# ── Fit Data (object fit_2cmt is a modified tibble): ──
# # A tibble: 155 × 19
#   ID     TIME    DV  PRED    RES IPRED   IRES  IWRES  eta.cl  eta.vc    cp central peripheral      cl    vc    vp     q   tad dosenum
#   <fct> <dbl> <dbl> <dbl>  <dbl> <dbl>  <dbl>  <dbl>   <dbl>   <dbl> <dbl>   <dbl>      <dbl>   <dbl> <dbl> <dbl> <dbl> <dbl>   <dbl>
# 1 1        2   17.3  17.9 -0.611  18.5 -1.18  -0.390 -0.0706 -0.0769  18.5    9.83      14.9  0.00568 0.532 0.806  1.11     2       1
# 2 1      112.  31    29.2  1.76   30.5  0.457  0.151 -0.0706 -0.0769  30.5   16.3       24.7  0.00568 0.532 0.806  1.11     4      10
# 3 2        2    9.7  10.7 -1.05   12.1 -2.37  -0.782 -0.285  -0.304   12.1    5.12       9.75 0.00458 0.424 0.806  1.11     2       1
# # ℹ 152 more rows
# # ℹ Use `print(n = ...)` to see more rows
…
