Integration with nlmixr2auto • nlmixr2autoinit
…
# ── Population Parameters (fit2$parFixed or fit2$parFixedDf): ──
# 
#            Est.     SE %RSE    Back-transformed(95%CI) BSV(CV%) Shrink(SD)%
# lcl       -5.16  0.148 2.88 0.00576 (0.00431, 0.00771)     91.7     -1.65% 
# lvc       0.366 0.0273 7.46          1.44 (1.37, 1.52)                     
# sigma_add  5.51                                   5.51                     
#  
#   Covariance Type (fit2$covMethod): linFim
#   No correlations in between subject variability (BSV) matrix
#   Full BSV covariance (fit2$omega) or correlation (fit2$omegaR; diagonals=SDs) 
#   Distribution stats (mean/skewness/kurtosis/p-value) available in fit2$shrink 
#   Censoring (fit2$censInformation): No censoring
# 
# ── Fit Data (object fit2 is a modified tibble): ──
# # A tibble: 155 × 15
#   ID     TIME    DV  PRED    RES IPRED    IRES   IWRES eta.cl    cp central      cl    vc   tad dosenum
#   <fct> <dbl> <dbl> <dbl>  <dbl> <dbl>   <dbl>   <dbl>  <dbl> <dbl>   <dbl>   <dbl> <dbl> <dbl>   <dbl>
# 1 1        2   17.3  17.2  0.104  17.2  0.0778  0.0141 -0.216  17.2    24.8 0.00464  1.44     2       1
# 2 1      112.  31    28.9  2.06   30.6  0.364   0.0660 -0.216  30.6    44.2 0.00464  1.44     4      10
# 3 2        2    9.7  10.3 -0.617  10.3 -0.649  -0.118  -0.477  10.3    14.9 0.00357  1.44     2       1
# # ℹ 152 more rows
# # ℹ Use `print(n = ...)` to see more rows
…
